-32 40 -24 -48 -80 -32 -64 -80 -80 440
-24 16 -80 24 -32 -48 -80 -80 -48 488
-24 -24 -64 40 -48 -80 -80 -32 536
-72 -64 -72 -56 696
-32 -40 224 -80 -56 520
-40 -48 -40 -16 -16 24 -64 -64 -72 -48 -40 -72 352
-56 -8 -64 -80 -64 64 -56 -32 -80 -80 -80 240
-72 -80 -80 -56 -56 -40 -48 -48 -56 384
-24 -40 -24 -32 -80 -72 672
-8 16 -24 -80 -48 -64 -72 24 -40 -40 -48 -32 400
-56 -48 -48 -80 728
-80 -48 -72 -32 728
-32 -40 -16 -16 -16 832
-32 -80 -32 -72 -16 -56 656
-80 -48 -64 776